[{"id":1,"fecha":"12/23/2018","importe":47,"latitud":41.5423083,"longitud":44.4725636},
{"id":2,"fecha":"7/27/2018","importe":8,"latitud":47.9795218,"longitud":91.634756},
{"id":3,"fecha":"8/8/2018","importe":89,"latitud":47.747102,"longitud":122.831186},
{"id":4,"fecha":"5/11/2018","importe":97,"latitud":55.321347,"longitud":42.16866},
{"id":5,"fecha":"3/21/2019","importe":49,"latitud":19.2843786,"longitud":-99.1894389},
{"id":6,"fecha":"3/3/2019","importe":79,"latitud":40.5761474,"longitud":-8.5858661},
{"id":7,"fecha":"9/20/2018","importe":87,"latitud":21.860756,"longitud":112.6937778},
{"id":8,"fecha":"12/18/2018","importe":52,"latitud":50.4974447,"longitud":31.7833183},
{"id":9,"fecha":"12/15/2018","importe":93,"latitud":40.7408774,"longitud":24.5772111},
{"id":10,"fecha":"4/19/2019","importe":35,"latitud":23.0861808,"longitud":113.4943199},
{"id":11,"fecha":"11/28/2018","importe":53,"latitud":57.4749779,"longitud":25.491651},
{"id":12,"fecha":"1/19/2019","importe":71,"latitud":-6.9899077,"longitud":110.4098237},
{"id":13,"fecha":"1/5/2019","importe":68,"latitud":49.1931313,"longitud":-0.3907558},
{"id":14,"fecha":"2/11/2019","importe":60,"latitud":7.6392002,"longitud":123.3058014},
{"id":15,"fecha":"6/2/2018","importe":39,"latitud":22.0983236,"longitud":-79.7231612},
{"id":16,"fecha":"10/2/2018","importe":84,"latitud":-11.806679,"longitud":-77.1657716},
{"id":17,"fecha":"4/1/2019","importe":76,"latitud":1.3566345,"longitud":172.9299068},
{"id":18,"fecha":"6/9/2018","importe":17,"latitud":7.1889377,"longitud":124.6303406},
{"id":19,"fecha":"2/14/2019","importe":29,"latitud":49.8458727,"longitud":19.6201067},
{"id":20,"fecha":"5/11/2018","importe":60,"latitud":62.6243044,"longitud":26.8277488},
{"id":21,"fecha":"4/1/2019","importe":73,"latitud":50.4119089,"longitud":16.5148115},
{"id":22,"fecha":"10/28/2018","importe":25,"latitud":31.009235,"longitud":121.417985},
{"id":23,"fecha":"4/5/2019","importe":74,"latitud":36.285616,"longitud":115.147814},
{"id":24,"fecha":"7/3/2018","importe":76,"latitud":47.395226,"longitud":8.5216392},
{"id":25,"fecha":"6/15/2018","importe":66,"latitud":57.7577156,"longitud":16.6369759},
{"id":26,"fecha":"6/23/2018","importe":69,"latitud":23.146358,"longitud":113.265008},
{"id":27,"fecha":"6/6/2018","importe":81,"latitud":48.2211075,"longitud":26.2712988},
{"id":28,"fecha":"2/9/2019","importe":97,"latitud":39.8230099,"longitud":119.4891595},
{"id":29,"fecha":"1/8/2019","importe":41,"latitud":7.3293411,"longitud":100.3385624},
{"id":30,"fecha":"7/9/2018","importe":90,"latitud":42.2431463,"longitud":27.760764},
{"id":31,"fecha":"8/26/2018","importe":43,"latitud":59.3316697,"longitud":18.0278909},
{"id":32,"fecha":"7/4/2018","importe":43,"latitud":"-8.51758","longitud":"179.20094"},
{"id":33,"fecha":"8/14/2018","importe":3,"latitud":-8.1913524,"longitud":114.678669},
{"id":34,"fecha":"9/4/2018","importe":100,"latitud":33.6571965,"longitud":135.9491482},
{"id":35,"fecha":"10/31/2018","importe":67,"latitud":-31.43337,"longitud":-64.2142976},
{"id":36,"fecha":"4/22/2019","importe":28,"latitud":23.131797,"longitud":113.407143},
{"id":37,"fecha":"12/26/2018","importe":28,"latitud":"51.71667","longitud":"126.63333"},
{"id":38,"fecha":"10/26/2018","importe":14,"latitud":36.2569423,"longitud":139.381182},
{"id":39,"fecha":"8/1/2018","importe":80,"latitud":8.1713638,"longitud":-72.1712309},
{"id":40,"fecha":"12/3/2018","importe":88,"latitud":8.5524587,"longitud":-82.6861446},
{"id":41,"fecha":"12/8/2018","importe":31,"latitud":24.594229,"longitud":121.8533264},
{"id":42,"fecha":"3/20/2019","importe":49,"latitud":-29.3632188,"longitud":27.5143603},
{"id":43,"fecha":"10/15/2018","importe":3,"latitud":"-8.2015","longitud":"114.8899"},
{"id":44,"fecha":"7/26/2018","importe":52,"latitud":32.5468611,"longitud":-116.9030256},
{"id":45,"fecha":"1/31/2019","importe":47,"latitud":42.3242187,"longitud":59.1818543},
{"id":46,"fecha":"9/27/2018","importe":5,"latitud":14.63441,"longitud":-91.578904},
{"id":47,"fecha":"10/6/2018","importe":12,"latitud":"-8.736","longitud":"115.4945"},
{"id":48,"fecha":"11/14/2018","importe":100,"latitud":30.0444196,"longitud":31.2357116},
{"id":49,"fecha":"12/12/2018","importe":85,"latitud":10.5423489,"longitud":122.9635773},
{"id":50,"fecha":"4/20/2019","importe":93,"latitud":49.3883262,"longitud":17.0710865},
{"id":51,"fecha":"2/22/2019","importe":82,"latitud":10.508928,"longitud":107.1816257},
{"id":52,"fecha":"2/27/2019","importe":63,"latitud":57.6938555,"longitud":11.9704401},
{"id":53,"fecha":"2/12/2019","importe":59,"latitud":46.5193583,"longitud":16.197814},
{"id":54,"fecha":"8/26/2018","importe":99,"latitud":-26.7376205,"longitud":-49.1743626},
{"id":55,"fecha":"6/26/2018","importe":19,"latitud":35.4449242,"longitud":-5.0937101},
{"id":56,"fecha":"10/29/2018","importe":9,"latitud":31.9641427,"longitud":44.9066503},
{"id":57,"fecha":"12/25/2018","importe":52,"latitud":-6.4933318,"longitud":106.8809319},
{"id":58,"fecha":"11/13/2018","importe":32,"latitud":41.7595825,"longitud":-7.4773543},
{"id":59,"fecha":"5/16/2018","importe":77,"latitud":52.2183563,"longitud":35.2154784},
{"id":60,"fecha":"11/24/2018","importe":3,"latitud":41.7815196,"longitud":123.4582948},
{"id":61,"fecha":"4/2/2019","importe":18,"latitud":13.74372,"longitud":-15.7732633},
{"id":62,"fecha":"10/7/2018","importe":22,"latitud":38.9485485,"longitud":22.8400018},
{"id":63,"fecha":"11/7/2018","importe":4,"latitud":7.3410628,"longitud":134.4771596},
{"id":64,"fecha":"12/1/2018","importe":59,"latitud":41.4252912,"longitud":-8.5601403},
{"id":65,"fecha":"1/8/2019","importe":43,"latitud":39.9041999,"longitud":116.4073963},
{"id":66,"fecha":"4/29/2019","importe":19,"latitud":"53.8191","longitud":"27.5215"},
{"id":67,"fecha":"5/14/2018","importe":49,"latitud":-19.9454604,"longitud":-43.4876311},
{"id":68,"fecha":"5/26/2018","importe":36,"latitud":49.9120778,"longitud":13.9774742},
{"id":69,"fecha":"8/29/2018","importe":38,"latitud":17.7409147,"longitud":-91.7660525},
{"id":70,"fecha":"2/19/2019","importe":49,"latitud":-2.9135019,"longitud":-79.8156667},
{"id":71,"fecha":"2/5/2019","importe":54,"latitud":19.7235862,"longitud":99.7165007},
{"id":72,"fecha":"10/26/2018","importe":99,"latitud":-14.1325,"longitud":-73.268611},
{"id":73,"fecha":"10/29/2018","importe":26,"latitud":33.0517157,"longitud":68.0149609},
{"id":74,"fecha":"3/30/2019","importe":85,"latitud":49.199757,"longitud":17.4903796},
{"id":75,"fecha":"4/29/2019","importe":8,"latitud":40.3753959,"longitud":-7.8270679},
{"id":76,"fecha":"6/1/2018","importe":37,"latitud":-6.5303987,"longitud":107.5386809},
{"id":77,"fecha":"11/12/2018","importe":45,"latitud":49.2017413,"longitud":18.1117597},
{"id":78,"fecha":"2/5/2019","importe":73,"latitud":31.2777088,"longitud":49.5993167},
{"id":79,"fecha":"11/2/2018","importe":24,"latitud":28.228209,"longitud":112.938814},
{"id":80,"fecha":"12/9/2018","importe":40,"latitud":"35.90556","longitud":"14.47611"},
{"id":81,"fecha":"3/31/2019","importe":62,"latitud":"13.7192","longitud":"123.6675"},
{"id":82,"fecha":"9/6/2018","importe":47,"latitud":16.8877073,"longitud":101.2273373},
{"id":83,"fecha":"4/18/2019","importe":8,"latitud":31.231521,"longitud":121.45076},
{"id":84,"fecha":"12/17/2018","importe":8,"latitud":-8.0295271,"longitud":113.0369406},
{"id":85,"fecha":"12/8/2018","importe":80,"latitud":40.9283231,"longitud":-8.4329966},
{"id":86,"fecha":"2/7/2019","importe":53,"latitud":41.4287634,"longitud":-8.6217146},
{"id":87,"fecha":"10/18/2018","importe":58,"latitud":47.6632745,"longitud":1.206057},
{"id":88,"fecha":"1/2/2019","importe":9,"latitud":48.6658441,"longitud":30.817434},
{"id":89,"fecha":"6/16/2018","importe":11,"latitud":33.308897,"longitud":87.768212},
{"id":90,"fecha":"6/20/2018","importe":71,"latitud":42.9856238,"longitud":25.6162991},
{"id":91,"fecha":"6/18/2018","importe":72,"latitud":"41.32042","longitud":"22.53047"},
{"id":92,"fecha":"6/29/2018","importe":67,"latitud":53.5131868,"longitud":27.905137},
{"id":93,"fecha":"9/18/2018","importe":64,"latitud":-28.4629851,"longitud":-52.9814383},
{"id":94,"fecha":"2/25/2019","importe":38,"latitud":48.4851578,"longitud":23.6229395},
{"id":95,"fecha":"11/19/2018","importe":83,"latitud":45.6467048,"longitud":122.8448203},
{"id":96,"fecha":"12/26/2018","importe":7,"latitud":53.8257473,"longitud":39.556825},
{"id":97,"fecha":"12/14/2018","importe":52,"latitud":-17.3079902,"longitud":-40.1862129},
{"id":98,"fecha":"3/11/2019","importe":39,"latitud":49.3637828,"longitud":-123.2679395},
{"id":99,"fecha":"2/11/2019","importe":58,"latitud":27.027081,"longitud":117.694969},
{"id":100,"fecha":"12/11/2018","importe":86,"latitud":-6.4901067,"longitud":106.8306951}]
